YYC weather – ME
…
The following objects are masked from 'package:base':

    date, intersect, setdiff, union

Rows: 366 Columns: 33
── Column specification ────────────────────────────────────────────────────────
Delimiter: ","
chr  (7): Station Name, Highest Temp. Period, Lowest Temp. Period, Greatest ...
dbl (20): Longitude (x), Latitude (y), Climate ID, Month, Day, Average Max. ...
lgl  (6): Highest Temp. Data Quality, Lowest Temp. Data Quality, Greatest Pr...

ℹ Use `spec()` to retrieve the full column specification for this data.
ℹ Specify the column types or set `show_col_types = FALSE` to quiet this message.

# A tibble: 366 × 33
   longitude_x latitude_y station_name climate_id month   day average_max_temp_c
         <dbl>      <dbl> <chr>             <dbl> <dbl> <dbl>              <dbl>
 1       -114.       51.1 CALGARY INT…    3031093     1     1               -2.7
 2       -114.       51.1 CALGARY INT…    3031093     1     2               -2.7
 3       -114.       51.1 CALGARY INT…    3031093     1     3               -2.8
 4       -114.       51.1 CALGARY INT…    3031093     1     4               -2.9
 5       -114.       51.1 CALGARY INT…    3031093     1     5               -2.9
 6       -114.       51.1 CALGARY INT…    3031093     1     6               -3  
 7       -114.       51.1 CALGARY INT…    3031093     1     7               -3  
 8       -114.       51.1 CALGARY INT…    3031093     1     8               -3  
 9       -114.       51.1 CALGARY INT…    3031093     1     9               -3.1
10       -114.       51.1 CALGARY INT…    3031093     1    10               -3.1
# ℹ 356 more rows
# ℹ 26 more variables: average_min_temp_c <dbl>,
#   frequency_of_precip_percent <dbl>, highest_temp_c <dbl>,
#   highest_temp_year <dbl>, highest_temp_period <chr>,
#   highest_temp_data_quality <lgl>, lowest_temp_c <dbl>,
#   lowest_temp_year <dbl>, lowest_temp_period <chr>,
#   lowest_temp_data_quality <lgl>, greatest_precip_mm <dbl>, …
…
